Location,Name,Frequency,Duplex,Offset,Tone,rToneFreq,cToneFreq,DtcsCode,DtcsPolarity,Mode,TStep,Skip,Comment,URCALL,RPT1CALL,RPT2CALL,DVCODE
0,,146.01,,0.6,,88.5,88.5,23,NN,FM,5,,,,,,
1,WD5EMS,29.64,-,0.1,Tone,110.9,110.9,23,NN,FM,5,,"Round Rock, St Davids Surgical Hospital",,,,
2,WD5EMS,52.95,-,1,Tone,100,100,23,NN,FM,5,,"Round Rock, St Davids Surgical Hospital",,,,
3,K5AB,53.05,-,1,Tone,88.5,88.5,23,NN,FM,5,,Georgetown,,,,
4,WB5PCV,53.67,-,1,Tone,103.5,88.5,23,NN,FM,5,,"Austin, UT Austin",,,,
5,N5ZUA,145.11,-,0.6,Tone,103.5,88.5,23,NN,FM,5,,"Austin, Westlake Hills",,,,
6,AD5JT,145.15,-,0.6,Tone,136.5,136.5,23,NN,FM,5,,Lockhart,,,,
7,KB5HTB,145.17,-,0.6,Tone,88.5,88.5,23,NN,FM,5,,Del Valle,,,,
8,KA9LAY,145.21,-,0.6,Tone,97.4,88.5,23,NN,FM,5,,Jollyville,,,,
9,N5TT,145.25,-,0.6,Tone,162.2,88.5,23,NN,FM,5,,Georgetown,,,,
10,WD5EMS,145.33,-,0.6,Tone,100,88.5,23,NN,Auto,5,,Round Rock,,,,
11,K5OQ,145.35,-,0.6,Tone,114.8,114.8,23,NN,Auto,5,,Smithville,,,,
12,KC5WLF,145.37,-,0.6,Tone,103.5,103.5,23,NN,Auto,5,,Cedar Park,,,,
13,N5KUQ,145.39,-,0.6,Tone,103.5,103.5,23,NN,FM,5,,"Marble Falls, Hidden Falls Adventure Park",,,,
14,N5FRT,145.4,-,0.6,Tone,114.8,114.8,23,NN,FM,5,,Rosanky,,,,
15,N5FRT,145.4,-,0.6,Tone,114.8,114.8,23,NN,FM,5,,Bastrop,,,,
16,WB5PCV,145.41,-,0.6,Tone,103.5,103.5,23,NN,FM,5,,Lakeway,,,,
17,KE5AMB,145.43,-,0.6,Tone,114.8,114.8,23,NN,P25,5,,"Dale, Flag Hill",,,,
18,N5JFP,145.43,,0,Tone,88.5,88.5,23,NN,DV,5,,Marble Falls,CQCQCQ,,,0
19,N5TT,145.45,-,0.6,Tone,162.2,88.5,23,NN,FM,5,,Taylor,,,,
20,N3ERC,145.47,-,0.6,Tone,114.8,114.8,23,NN,FM,5,,Taylor,,,,
21,WB5PCV,146.61,-,0.6,Tone,103.5,103.5,23,NN,FM,5,,Austin,,,,
22,N5TT,146.64,-,0.6,Tone,162.2,162.2,23,NN,FM,5,,Georgetown,,,,
23,KE5ZW,146.68,-,0.6,Tone,123,123,23,NN,P25,5,,Cedar Park,,,,
24,N5MNW,146.7,-,0.6,Tone,110.9,110.9,23,NN,FM,5,,Round Rock,,,,
25,W5MIX,146.74,-,0.6,Tone,110.9,88.5,23,NN,FM,5,,Dripping Springs,,,,
26,W5KA,146.78,-,0.6,,88.5,88.5,23,NN,DV,5,,"Austin, South Austin Med Ctr",CQCQCQ,,,0
27,KC5WLF,146.84,-,0.6,Tone,103.5,103.5,23,NN,FM,5,,Cedar Park,,,,
28,N0GSZ,146.86,-,0.6,Tone,146.2,146.2,23,NN,P25,5,,Austin,,,,
29,W5KA,146.88,-,0.6,Tone,107.2,107.2,23,NN,Auto,5,,"Austin, Pickle Research Center ",,,,
30,W3MRC,146.9,-,0.6,Tone,100,88.5,23,NN,FM,5,,Cedar Park,,,,
31,W5DK,146.92,-,0.6,Tone,131.8,131.8,23,NN,FM,5,,"San Marcos , Devils Backbone",,,,
32,W5KA,146.94,-,0.6,Tone,107.2,107.2,23,NN,FM,5,,"Austin, Buckman Mountain",,,,
33,W2MN,146.98,-,0.6,Tone,103.5,88.5,23,NN,FM,5,,Cedar Park,,,,
34,KE5LOT,147.05,+,0.6,Tone,114.8,114.8,23,NN,Auto,5,,Kyle,,,,
35,W5FUA,147.06,+,0.6,Tone,103.5,88.5,23,NN,FM,5,,Wimberley,,,,
36,NA6M,147.08,+,0.6,Tone,100,100,23,NN,FM,5,,Georgetown,,,,
37,W5CTX,147.1,+,0.6,Tone,141.3,141.3,23,NN,FM,5,,Wimberley,,,,
38,W2MN,147.12,+,0.6,Tone,103.5,88.5,23,NN,FM,5,,Cedar Park,,,,
39,N5OAK,147.25,+,0.6,Tone,114.8,88.5,23,NN,FM,5,,DRIPPING SPRINGS ,,,,
40,N5TXR,147.3,+,0.6,Tone,131.8,131.8,23,NN,FM,5,,Lakeway,,,,
41,N5OAK,147.32,+,0.6,Tone,114.8,114.8,23,NN,FM,5,,"Austin, Oak Hill",,,,
42,NA6M,147.34,+,0.6,Tone,100,88.5,23,NN,FM,5,,Bastrop,,,,
43,WA5VTV,147.36,+,0.6,Tone,131.8,131.8,23,NN,FM,5,,"Austin, Buckman Mtn",,,,
44,K5MPS,147.52,,0,Tone,233.6,88.5,23,NN,FM,5,,San Marcos,,,,
45,K5FX,147.57,,0,,88.5,88.5,23,NN,FM,5,,Austin,,,,
46,WD5EMS,224.36,-,1.6,Tone,100,100,23,NN,FM,5,,"Round Rock, St Davids Surgical Hospital",,,,
47,KG5BZ,224.48,-,1.6,Tone,103.5,88.5,23,NN,FM,5,,Pflugerville,,,,
48,W5KA,224.8,-,1.6,Tone,110.9,88.5,23,NN,FM,5,,Austin,,,,
49,KC5WLF,224.84,-,1.6,Tone,103.5,88.5,23,NN,FM,5,,Lago Vista,,,,
50,WB5PCV,224.94,-,1.6,,88.5,88.5,23,NN,FM,5,,Austin,,,,
51,N5JFP,440.6,+,5,Tone,88.5,88.5,23,NN,DV,5,,Marble Falls,CQCQCQ,,,0
52,W5KA,440.65,+,5,,88.5,88.5,23,NN,DV,5,,"Austin, South Austin Hospital",CQCQCQ,,,0
53,N5OAK,441.3,+,5,,88.5,88.5,23,NN,DIG,5,,"Austin, North Central Austin",,,,
54,K5TMT,441.3125,+,5,Tone,107.2,107.2,23,NN,FM,5,,Leander,,,,
55,KA5D,441.325,+,5,Tone,97.4,97.4,23,NN,FM,5,,"Austin, University of Texas",,,,
56,KE5PME,441.375,+,5,Tone,186.2,88.5,23,NN,FM,5,,"Austin, FM 969",,,,
57,W5CGU,441.5,+,5,Tone,162.2,162.2,23,NN,FM,5,,Cedar Park,,,,
58,AC5PS,441.5625,+,5,,88.5,88.5,23,NN,Auto,5,,"Mustang Ridge, HWY 130/21 intersection",,,,
59,N5KF,441.575,+,5,Tone,100,88.5,23,NN,FM,5,,Georgetown,,,,
60,KE5RS,441.6,+,5,Tone,100,100,23,NN,FM,5,,"Leander, Cedar Park Hospital",,,,
61,K5SCT,441.625,+,5,Tone,103.5,88.5,23,NN,FM,5,,Georgetown,,,,
62,KG5DRT,441.6625,+,5,Tone,114.8,114.8,23,NN,FM,5,,Austin,,,,
63,K5LBJ,441.675,+,5,Tone,131.8,131.8,23,NN,FM,5,,Austin,,,,
64,KM5MQ,441.7,+,5,Tone,110.9,88.5,23,NN,FM,5,,Round Rock,,,,
65,N5YQ,441.75,+,5,Tone,77,88.5,23,NN,FM,5,,Austin,,,,
66,N5OAK,441.775,+,5,Tone,114.8,88.5,23,NN,FM,5,,Austin,,,,
67,KC5CFU,441.825,+,5,Tone,114.8,88.5,23,NN,FM,5,,Pflugerville,,,,
68,N5JGX,441.875,+,5,Tone,88.5,88.5,23,NN,FM,5,,Austin,,,,
69,WA6KGI,441.925,+,5,Tone,88.5,88.5,23,NN,FM,5,,Austin,,,,
70,KA9LAY,441.975,+,5,Tone,97.4,88.5,23,NN,FM,5,,Austin,,,,
71,KA6ATN,442,+,5,Tone,186.2,88.5,23,NN,FM,5,,"Austin, Cambridge Tower",,,,
72,W5TRI,442.025,+,5,Tone,114.8,88.5,23,NN,FM,5,,Austin,,,,
73,KB5HTB,442.0625,+,5,,88.5,88.5,23,NN,Auto,5,,Austin,,,,
74,KB5PRZ,442.15,+,5,,88.5,88.5,23,NN,FM,5,,"Austin, The University of Texas",,,,
75,K5AB,442.2,+,5,Tone,100,100,23,NN,FM,5,,Austin,,,,
76,KN5X,442.275,+,5,Tone,110.9,88.5,23,NN,Auto,5,,Austin,,,,
77,K5FX,442.4,+,5,Tone,141.3,141.3,23,NN,FM,5,,Austin,,,,
78,KI4MS,442.425,+,5,Tone,100,100,23,NN,FM,5,,Manor,,,,
79,WB5UGT,442.45,+,5,Tone,141.3,88.5,23,NN,FM,5,,Austin,,,,
80,KE3D,442.475,+,5,Tone,127.3,88.5,23,NN,FM,5,,Austin,,,,
81,WB5FNZ,442.5,+,5,Tone,162.2,162.2,23,NN,FM,5,,Austin,,,,
82,WA5AP,442.55,+,5,Tone,141.3,88.5,23,NN,FM,5,,Wimberley,,,,
83,K5TCR,442.6,+,5,Tone,141.3,88.5,23,NN,FM,5,,Austin,,,,
84,KE5ZW,442.65,+,5,,88.5,88.5,23,NN,DIG,5,,Cedar Park,,,,
85,KG5PVG,442.7,+,5,Tone,123,88.5,23,NN,FM,5,,"San Marcos, Texas State University",,,,
86,WB6ARE,442.725,+,5,Tone,114.8,114.8,23,NN,FM,5,,Bastrop,,,,
87,KC5WXT,442.8,+,5,Tone,114.8,114.8,23,NN,FM,5,,Elgin,,,,
88,N5KUQ,442.85,+,5,Tone,103.5,103.5,23,NN,FM,5,,Marble Falls,,,,
89,KE5AMB,443,+,5,Tone,114.8,114.8,23,NN,FM,5,,"Dale, Flag Hill",,,,
90,K5TRA,443.075,+,5,Tone,123,123,23,NN,P25,5,,Austin,,,,
91,N5ECG,443.1,+,5,Tone,110.9,88.5,23,NN,FM,5,,Round Rock,,,,
92,WB6ARE,443.175,+,5,Tone,114.8,88.5,23,NN,FM,5,,Bastrop,,,,
93,AE5BA,443.525,+,5,Tone,114.8,88.5,23,NN,FM,5,,San Marcos,,,,
94,AI5TX,443.65,+,5,Tone,114.8,88.5,23,NN,FM,5,,San Marcos,,,,
95,K5OQ,443.75,+,5,Tone,114.8,114.8,23,NN,FM,5,,Bastrop,,,,
96,KE5ZW,443.775,+,5,Tone,131.8,88.5,23,NN,FM,5,,Georgetown,,,,
97,WA5VTV,443.8,+,5,Tone,131.8,131.8,23,NN,FM,5,,Austin,,,,
98,WB5PCV,444,+,5,Tone,107.2,107.2,23,NN,FM,5,,Austin,,,,
99,WA5AP,444.05,+,5,Tone,141.3,141.3,23,NN,FM,5,,Cedar Creek,,,,
100,W5KA,444.1,+,5,Tone,103.5,103.5,23,NN,FM,5,,Austin,,,,
101,WA5PAX,444.15,+,5,Tone,114.8,114.8,23,NN,FM,5,,Wimberley,,,,
102,W5KA,444.2,+,5,Tone,107.2,88.5,23,NN,FM,5,,"Austin, Buckman Mountain",,,,
103,NH7R,444.25,+,5,,88.5,88.5,23,NN,Auto,5,,"Georgetown, KGTU Airport",,,,
104,W5MOT,444.325,+,5,Tone,186.2,88.5,23,NN,FM,5,,Dripping Springs,,,,
105,WB5PCV,444.4,+,5,Tone,103.5,103.5,23,NN,FM,5,,Lakeway,,,,
106,W5ERX,444.45,+,5,Tone,114.8,88.5,23,NN,FM,5,,Canyon Lake,,,,
107,K5TRA,444.5,+,5,Tone,110.9,110.9,23,NN,FM,5,,Johnson City,,,,
108,NA6M,444.525,+,5,Tone,100,88.5,23,NN,FM,5,,Georgetown,,,,
109,W3MRC,444.6,+,5,Tone,100,88.5,23,NN,FM,5,,Cedar Park,,,,
110,K5KTF,444.625,+,5,Tone,100,100,23,NN,FM,5,,Cedar Park,,,,
111,AA5R,444.775,+,5,Tone,110.9,110.9,23,NN,FM,5,,Austin,,,,
112,AE5WW,444.85,+,5,Tone,103.5,103.5,23,NN,Auto,5,,"Austin, Water Tower",,,,
113,WD5EMS,444.875,+,5,Tone,100,100,23,NN,Auto,5,,"Round Rock, St Davids Surgical Hospital",,,,
114,KC5WLF,444.95,+,5,Tone,110.9,110.9,23,NN,FM,5,,Austin,,,,
115,KA5D,445,,0,Tone,67,67,23,NN,FM,5,,"Austin, University of Texas",,,,
116,K5MPS,446.15,,0,,88.5,88.5,23,NN,FM,5,,San Marcos,,,,
117,K5TRA,927.0125,-,25,Tone,225.7,225.7,23,NN,FM,5,,Austin,,,,
118,K5TRA,927.0375,-,25,Tone,141.3,141.3,23,NN,FM,5,,Canyon Lake,,,,
119,WD5EMS,927.05,-,25,Tone,110.9,110.9,23,NN,FM,5,,"Round Rock, St Davids Surgical Hospital",,,,
120,K5TRA,927.0625,-,25,Tone,203.5,203.5,23,NN,FM,5,,Georgetown,,,,
121,KA5D,927.075,-,25,Tone,218.1,218.1,23,NN,FM,5,,"Austin, University of Texas",,,,
122,K5TRA,927.0875,-,25,Tone,151.4,151.4,23,NN,FM,5,,Bee Cave,,,,
123,K5TRA,927.1125,-,25,DTCS,88.5,88.5,432,NN,FM,5,,Austin,,,,
124,K5TRA,927.125,-,25,Tone,103.5,103.5,23,NN,FM,5,,Lago Vista,,,,
125,K5TRA,927.1875,-,25,Tone,151.4,151.4,23,NN,P25,5,,Austin,,,,
126,N5MHI,1292.4,-,20,Tone,107.2,88.5,23,NN,FM,5,,"Austin, Buckman Mountain",,,,
127,WD5EMS,1293,-,20,Tone,100,100,23,NN,FM,5,,"Round Rock, St Davids Surgical Hospital",,,,
128,W5KA,1293.1,-,20,,88.5,88.5,23,NN,DV,5,,"Austin, South Austin Med Ctr",CQCQCQ,,,0
