Location,Name,Frequency,Duplex,Offset,Tone,rToneFreq,cToneFreq,DtcsCode,DtcsPolarity,Mode,TStep,Skip,Comment,URCALL,RPT1CALL,RPT2CALL,DVCODE
0,,146.01,,0.6,,88.5,88.5,23,NN,FM,5,,,,,,
1,WD5EMS,29.64,-,0.1,Tone,110.9,110.9,23,NN,FM,5,,"Round Rock, St Davids Surgical Hospital",,,,
2,WD5EMS,52.95,-,1,Tone,100,100,23,NN,FM,5,,"Round Rock, St Davids Surgical Hospital",,,,
3,WB5PCV,53.67,-,1,Tone,103.5,88.5,23,NN,FM,5,,"Austin, UT Austin",,,,
4,N5ZUA,145.11,-,0.6,Tone,103.5,88.5,23,NN,FM,5,,"Austin, Westlake Hills",,,,
5,AD5JT,145.15,-,0.6,Tone,136.5,136.5,23,NN,FM,5,,Lockhart,,,,
6,KA9LAY,145.21,-,0.6,Tone,97.4,88.5,23,NN,FM,5,,Jollyville,,,,
7,W5CTX,145.23,-,0.6,Tone,123,88.5,23,NN,FM,5,,Luling,,,,
8,WD5EMS,145.33,-,0.6,Tone,100,88.5,23,NN,Auto,5,,Round Rock,,,,
9,K5OQ,145.35,-,0.6,Tone,114.8,114.8,23,NN,Auto,5,,Smithville,,,,
10,KC5WLF,145.37,-,0.6,Tone,103.5,103.5,23,NN,Auto,5,,Cedar Park,,,,
11,N5FRT,145.4,-,0.6,Tone,114.8,114.8,23,NN,FM,5,,Bastrop,,,,
12,N5FRT,145.4,-,0.6,Tone,114.8,114.8,23,NN,FM,5,,Rosanky,,,,
13,KE5AMB,145.43,-,0.6,Tone,114.8,114.8,23,NN,P25,5,,"Dale, Flag Hill",,,,
14,WB5PCV,146.61,-,0.6,Tone,103.5,103.5,23,NN,FM,5,,Austin,,,,
15,KE5ZW,146.68,-,0.6,Tone,123,123,23,NN,P25,5,,Cedar Park,,,,
16,N5MNW,146.7,-,0.6,Tone,110.9,110.9,23,NN,FM,5,,Round Rock,,,,
17,W5KA,146.78,-,0.6,,88.5,88.5,23,NN,DV,5,,"Austin, South Austin Med Ctr",CQCQCQ,,,0
18,N5ZUA,146.8,-,0.6,Tone,100,67,23,NN,FM,5,,"La Grange, US 77 south on tower",,,,
19,KC5WLF,146.84,-,0.6,Tone,103.5,103.5,23,NN,FM,5,,Cedar Park,,,,
20,N0GSZ,146.86,-,0.6,Tone,146.2,146.2,23,NN,P25,5,,Austin,,,,
21,W5KA,146.88,-,0.6,Tone,107.2,107.2,23,NN,Auto,5,,"Austin, Pickle Research Center ",,,,
22,W3MRC,146.9,-,0.6,Tone,100,88.5,23,NN,FM,5,,Cedar Park,,,,
23,W5KA,146.94,-,0.6,Tone,107.2,107.2,23,NN,FM,5,,"Austin, Buckman Mountain",,,,
24,W2MN,146.98,-,0.6,Tone,103.5,88.5,23,NN,FM,5,,Cedar Park,,,,
25,KC5WXT,147.01,+,0.6,Tone,114.8,114.8,23,NN,FM,5,,Smithville,,,,
26,KE5LOT,147.05,+,0.6,Tone,114.8,114.8,23,NN,Auto,5,,Kyle,,,,
27,W2MN,147.12,+,0.6,Tone,103.5,88.5,23,NN,FM,5,,Cedar Park,,,,
28,N5ZUA,147.2,+,0.6,Tone,103.5,88.5,23,NN,FM,5,,Bastrop,,,,
29,NE5DX,147.22,+,0.6,Tone,114.8,88.5,23,NN,FM,5,,Giddings,,,,
30,N5OAK,147.32,+,0.6,Tone,114.8,114.8,23,NN,FM,5,,"Austin, Oak Hill",,,,
31,NA6M,147.34,+,0.6,Tone,100,88.5,23,NN,FM,5,,Bastrop,,,,
32,WA5VTV,147.36,+,0.6,Tone,131.8,131.8,23,NN,FM,5,,"Austin, Buckman Mtn",,,,
33,N5FRT,147.38,+,0.6,Tone,114.8,114.8,23,NN,Auto,5,,"La Grange, Hostyn",,,,
34,K5FX,147.57,,0,,88.5,88.5,23,NN,FM,5,,Austin,,,,
35,WD5EMS,224.36,-,1.6,Tone,100,100,23,NN,FM,5,,"Round Rock, St Davids Surgical Hospital",,,,
36,KG5BZ,224.48,-,1.6,Tone,103.5,88.5,23,NN,FM,5,,Pflugerville,,,,
37,W5KA,224.8,-,1.6,Tone,110.9,88.5,23,NN,FM,5,,Austin,,,,
38,WB5PCV,224.94,-,1.6,,88.5,88.5,23,NN,FM,5,,Austin,,,,
39,W5KA,440.65,+,5,,88.5,88.5,23,NN,DV,5,,"Austin, South Austin Hospital",CQCQCQ,,,0
40,N5FRT,441.3,+,5,Tone,114.8,88.5,23,NN,FM,5,,"La Grange, Hostyn",,,,
41,N5OAK,441.3,+,5,,88.5,88.5,23,NN,DIG,5,,"Austin, North Central Austin",,,,
42,KA5D,441.325,+,5,Tone,97.4,97.4,23,NN,FM,5,,"Austin, University of Texas",,,,
43,KE5PME,441.375,+,5,Tone,186.2,88.5,23,NN,FM,5,,"Austin, FM 969",,,,
44,W5CGU,441.5,+,5,Tone,162.2,162.2,23,NN,FM,5,,Cedar Park,,,,
45,N5FRT,441.55,+,5,Tone,114.8,114.8,23,NN,DIG,5,,La Grange,,,,
46,AC5PS,441.5625,+,5,,88.5,88.5,23,NN,Auto,5,,"Mustang Ridge, HWY 130/21 intersection",,,,
47,KG5DRT,441.6625,+,5,Tone,114.8,114.8,23,NN,FM,5,,Austin,,,,
48,K5LBJ,441.675,+,5,Tone,131.8,131.8,23,NN,FM,5,,Austin,,,,
49,KM5MQ,441.7,+,5,Tone,110.9,88.5,23,NN,FM,5,,Round Rock,,,,
50,N5YQ,441.75,+,5,Tone,77,88.5,23,NN,FM,5,,Austin,,,,
51,N5OAK,441.775,+,5,Tone,114.8,88.5,23,NN,FM,5,,Austin,,,,
52,KC5CFU,441.825,+,5,Tone,114.8,88.5,23,NN,FM,5,,Pflugerville,,,,
53,N5JGX,441.875,+,5,Tone,88.5,88.5,23,NN,FM,5,,Austin,,,,
54,WA6KGI,441.925,+,5,Tone,88.5,88.5,23,NN,FM,5,,Austin,,,,
55,KA9LAY,441.975,+,5,Tone,97.4,88.5,23,NN,FM,5,,Austin,,,,
56,KA6ATN,442,+,5,Tone,186.2,88.5,23,NN,FM,5,,"Austin, Cambridge Tower",,,,
57,W5TRI,442.025,+,5,Tone,114.8,88.5,23,NN,FM,5,,Austin,,,,
58,KB5HTB,442.0625,+,5,,88.5,88.5,23,NN,Auto,5,,Austin,,,,
59,KB5PRZ,442.15,+,5,,88.5,88.5,23,NN,FM,5,,"Austin, The University of Texas",,,,
60,K5AB,442.2,+,5,Tone,100,100,23,NN,FM,5,,Austin,,,,
61,KN5X,442.275,+,5,Tone,110.9,88.5,23,NN,Auto,5,,Austin,,,,
62,K5FX,442.4,+,5,Tone,141.3,141.3,23,NN,FM,5,,Austin,,,,
63,KI4MS,442.425,+,5,Tone,100,100,23,NN,FM,5,,Manor,,,,
64,WB5UGT,442.45,+,5,Tone,141.3,88.5,23,NN,FM,5,,Austin,,,,
65,KE3D,442.475,+,5,Tone,127.3,88.5,23,NN,FM,5,,Austin,,,,
66,WB5FNZ,442.5,+,5,Tone,162.2,162.2,23,NN,FM,5,,Austin,,,,
67,KE5DX,442.575,+,5,Tone,114.8,88.5,23,NN,FM,5,,Giddings,,,,
68,K5TCR,442.6,+,5,Tone,141.3,88.5,23,NN,FM,5,,Austin,,,,
69,KE5ZW,442.65,+,5,,88.5,88.5,23,NN,DIG,5,,Cedar Park,,,,
70,WB6ARE,442.725,+,5,Tone,114.8,114.8,23,NN,FM,5,,Bastrop,,,,
71,KC5WXT,442.8,+,5,Tone,114.8,114.8,23,NN,FM,5,,Elgin,,,,
72,KE5AMB,443,+,5,Tone,114.8,114.8,23,NN,FM,5,,"Dale, Flag Hill",,,,
73,K5TRA,443.075,+,5,Tone,123,123,23,NN,P25,5,,Austin,,,,
74,N5ECG,443.1,+,5,Tone,110.9,88.5,23,NN,FM,5,,Round Rock,,,,
75,WB6ARE,443.175,+,5,Tone,114.8,88.5,23,NN,FM,5,,Bastrop,,,,
76,K5OQ,443.75,+,5,Tone,114.8,114.8,23,NN,FM,5,,Bastrop,,,,
77,WA5VTV,443.8,+,5,Tone,131.8,131.8,23,NN,FM,5,,Austin,,,,
78,WB5PCV,444,+,5,Tone,107.2,107.2,23,NN,FM,5,,Austin,,,,
79,WA5AP,444.05,+,5,Tone,141.3,141.3,23,NN,FM,5,,Cedar Creek,,,,
80,W5KA,444.1,+,5,Tone,103.5,103.5,23,NN,FM,5,,Austin,,,,
81,W5KA,444.2,+,5,Tone,107.2,88.5,23,NN,FM,5,,"Austin, Buckman Mountain",,,,
82,WB5UGT,444.3,+,5,Tone,203.5,88.5,23,NN,FM,5,,Bastrop,,,,
83,W3MRC,444.6,+,5,Tone,100,88.5,23,NN,FM,5,,Cedar Park,,,,
84,K5KTF,444.625,+,5,Tone,100,100,23,NN,FM,5,,Cedar Park,,,,
85,WB5UGT,444.725,+,5,Tone,141.3,88.5,23,NN,FM,5,,La Grange,,,,
86,AA5R,444.775,+,5,Tone,110.9,110.9,23,NN,FM,5,,Austin,,,,
87,AE5WW,444.85,+,5,Tone,103.5,103.5,23,NN,Auto,5,,"Austin, Water Tower",,,,
88,WD5EMS,444.875,+,5,Tone,100,100,23,NN,Auto,5,,"Round Rock, St Davids Surgical Hospital",,,,
89,KC5WLF,444.95,+,5,Tone,110.9,110.9,23,NN,FM,5,,Austin,,,,
90,KA5D,445,,0,Tone,67,67,23,NN,FM,5,,"Austin, University of Texas",,,,
91,K5TRA,927.0125,-,25,Tone,225.7,225.7,23,NN,FM,5,,Austin,,,,
92,WD5EMS,927.05,-,25,Tone,110.9,110.9,23,NN,FM,5,,"Round Rock, St Davids Surgical Hospital",,,,
93,KA5D,927.075,-,25,Tone,218.1,218.1,23,NN,FM,5,,"Austin, University of Texas",,,,
94,K5TRA,927.1125,-,25,DTCS,88.5,88.5,432,NN,FM,5,,Austin,,,,
95,K5TRA,927.1625,-,25,Tone,151.4,88.5,23,NN,FM,5,,"La Grange, Hostyn",,,,
96,K5TRA,927.1875,-,25,Tone,151.4,151.4,23,NN,P25,5,,Austin,,,,
97,N5MHI,1292.4,-,20,Tone,107.2,88.5,23,NN,FM,5,,"Austin, Buckman Mountain",,,,
98,WD5EMS,1293,-,20,Tone,100,100,23,NN,FM,5,,"Round Rock, St Davids Surgical Hospital",,,,
99,W5KA,1293.1,-,20,,88.5,88.5,23,NN,DV,5,,"Austin, South Austin Med Ctr",CQCQCQ,,,0
