Location,Name,Frequency,Duplex,Offset,Tone,rToneFreq,cToneFreq,DtcsCode,DtcsPolarity,Mode,TStep,Skip,Comment,URCALL,RPT1CALL,RPT2CALL,DVCODE
1,KB5YKJ,145.29,-,0.6,Tone,114.8,114.8,23,NN,FM,5,,Burnet,,,,
2,N5KUQ,145.39,-,0.6,Tone,103.5,103.5,23,NN,FM,5,,"Marble Falls, Hidden Falls Adventure Park",,,,
3,N5JFP,145.43,,0,Tone,88.5,88.5,23,NN,DV,5,,Marble Falls,CQCQCQ,,,0
4,K5HLA,147.02,+,0.6,Tone,88.5,88.5,23,NN,FM,5,,Burnet,,,,
5,N5JFP,440.6,+,5,Tone,88.5,88.5,23,NN,DV,5,,Marble Falls,CQCQCQ,,,0
6,N5KUQ,442.85,+,5,Tone,103.5,103.5,23,NN,FM,5,,Marble Falls,,,,
7,WA5PJE,444.275,+,5,,88.5,88.5,23,NN,FM,5,,Buchanan Dam,,,,
