Location,Name,Frequency,Duplex,Offset,Tone,rToneFreq,cToneFreq,DtcsCode,DtcsPolarity,Mode,TStep,Skip,Comment,URCALL,RPT1CALL,RPT2CALL,DVCODE
1,KA5QDG,145.17,-,0.6,Tone,123,123,23,NN,FM,5,,Houston – HOME,,,,
2,N5TRS,145.37,-,0.6,Tone,123,88.5,23,NN,FM,5,,"Houston, Houston Transtar – HOME",,,,
3,WA5TWT,146.7,-,0.6,Tone,103.5,88.5,23,NN,FM,5,,Houston - HOME,,,,
4,K5GZR,146.82,-,0.6,Tone,103.5,88.5,23,NN,FM,5,,Houston – HOME,,,,
5,N5HAR,146.84,-,0.6,Tone,103.5,88.5,23,NN,FM,5,,Houston – HOME,,,,
6,WB5UGT,146.92,-,0.6,Tone,103.5,88.5,23,NN,FM,5,,Houston – HOME,,,,
7,KG5EEO,146.94,-,0.6,Tone,167.9,167.9,23,NN,FM,5,,"Houston, Missouri City Antenna Farm – HOME",,,,
8,W5JUC,146.96,-,0.6,Tone,103.5,88.5,23,NN,FM,5,,Houston – HOME,,,,
9,WD5X,147,+,0.6,Tone,103.5,127.3,23,NN,FM,5,,Houston – HOME,,,,
10,W5ATP,147.08,+,0.6,Tone,103.5,103.5,23,NN,FM,5,,Houston – HOME,,,,
11,W5HDR,147.1,+,0.6,,88.5,88.5,23,NN,DV,5,,"Houston, Transtar – HOME",CQCQCQ,,,0
12,WA5QXE,147.32,+,0.6,Tone,100,88.5,23,NN,FM,5,,Houston – HOME,,,,
13,WD5X,224.1,-,1.6,Tone,103.5,103.5,23,NN,FM,5,,Houston – HOME,,,,
14,WD5X,224.8,-,1.6,Tone,103.5,103.5,23,NN,FM,5,,Houston – HOME,,,,
15,K5ILS,224.96,-,1.6,Tone,88.5,88.5,23,NN,FM,5,,"Houston, Galleria Area – HOME?",,,,
16,K5DX,442,+,5,Tone,103.5,103.5,23,NN,FM,5,,Houston – HOME,,,,
17,WA5F,442.5,+,5,Tone,123,88.5,23,NN,FM,5,,Houston – HOME,,,,
18,KD5HKQ,443.375,+,5,Tone,103.5,88.5,23,NN,FM,5,,Pasadena – HOME,,,,
19,N5KJN,443.4,+,5,Tone,141.3,141.3,23,NN,FM,5,,Pearland – HOME,,,,
20,KB5TFE,443.725,+,5,Tone,110.9,88.5,23,NN,FM,5,,Houston – HOME,,,,
21,WB5UGT,443.825,+,5,Tone,103.5,88.5,23,NN,FM,5,,Houston – HOME,,,,
22,WB5TUF,444,+,5,Tone,103.5,103.5,23,NN,Auto,5,,Houston – HOME,,,,
23,W5JSC,444.025,+,5,Tone,156.7,88.5,23,NN,FM,5,,Houston – HOME,,,,
24,W5PAS,444.275,+,5,Tone,103.5,103.5,23,NN,FM,5,,Pasadena – HOME,,,,
25,N5ZUA,444.3,+,5,Tone,123,103.5,23,NN,FM,5,,"Houston, Chase Bank Building – HOME",,,,
26,W5NC,444.375,+,5,Tone,103.5,88.5,23,NN,FM,5,,Houston – HOME,,,,
27,WD5BQN,444.4,+,5,Tone,103.5,88.5,23,NN,FM,5,,"Houston, Texas Medical Center – HOME",,,,
28,W5RPT,444.55,+,5,Tone,103.5,88.5,23,NN,FM,5,,Houston – HOME,,,,
29,K5WH,52.25,-,1,Tone,103.5,88.5,23,NN,FM,5,,Houston,,,,
30,W5BSA,145.19,-,0.6,Tone,123,88.5,23,NN,FM,5,,"Houston, BP Building",,,,
31,KD5OQS,145.23,-,0.6,Tone,107.2,107.2,23,NN,FM,5,,Houston,,,,
32,W5INP,145.34,-,0.6,Tone,88.5,88.5,23,NN,FM,5,,Houston,,,,
33,KD5HKQ,145.45,-,0.6,Tone,103.5,88.5,23,NN,FM,5,,Houston,,,,
34,W5RPT,145.47,-,0.6,Tone,123,88.5,23,NN,FM,5,,"Houston, Memorial Hermann SW Hospital ",,,,
35,KG5FAE,146,+,0.6,,88.5,88.5,23,NN,DV,5,,Houston,CQCQCQ,,,0
36,KG5FYV,146.45,,0,Tone,103.5,103.5,23,NN,FM,5,,Houston,,,,
37,KG5FYV,146.45,,0,Tone,94.8,88.5,23,NN,FM,5,,East Houston,,,,
38,W5RRR,146.64,-,0.6,Tone,123,88.5,23,NN,FM,5,,"Houston, JSC Building 1",,,,
39,KA5AKG,146.66,-,0.6,Tone,141.3,88.5,23,NN,FM,5,,Houston,,,,
40,KA5QDG,146.74,-,0.6,Tone,103.5,88.5,23,NN,FM,5,,"Houston, Memorial Hospital SE",,,,
41,K5WH,146.76,-,0.6,Tone,103.5,88.5,23,NN,FM,5,,Houston,,,,
42,KA5QDG,147.06,+,0.6,Tone,123,88.5,23,NN,FM,5,,"Houston, Astrodome",,,,
43,WA5DTR,147.3,+,0.6,Tone,151.4,151.4,23,NN,FM,5,,"Houston, Houston NW Medical Center",,,,
44,K5DX,147.36,+,0.6,Tone,100,88.5,23,NN,FM,5,,Houston,,,,
45,KG5FYV,147.53,,0,,88.5,94.8,23,NN,FM,5,,Houston,,,,
46,KB5IAM,224.16,-,1.6,Tone,103.5,88.5,23,NN,FM,5,,Houston,,,,
47,WA5TWT,224.2,-,1.6,,88.5,88.5,23,NN,FM,5,,Houston,,,,
48,W5WP,224.26,-,1.6,,88.5,88.5,23,NN,FM,5,,Houston,,,,
49,KD5HKQ,224.3,-,1.6,Tone,103.5,88.5,23,NN,FM,5,,Houston,,,,
50,KA5QDG,224.32,-,1.6,Tone,123,88.5,23,NN,FM,5,,Houston,,,,
51,WB5ITT,224.5,-,1.6,,88.5,88.5,23,NN,FM,5,,Houston,,,,
52,KG5FAE,440,+,5,,88.5,88.5,23,NN,DV,5,,Houston,CQCQCQ,,,0
53,W5HDR,440.6,+,5,,88.5,88.5,23,NN,DV,5,,"Houston, TMC",CQCQCQ,,,0
54,KA5PLE,441.175,+,5,,88.5,88.5,23,NN,DIG,5,,"Houston, South Main and 610",,,,
55,KB5ELT,441.3,+,5,Tone,100,88.5,23,NN,FM,5,,Houston,,,,
56,KD5DFB,441.775,+,5,,88.5,88.5,23,NN,DIG,5,,"Houston, Transtar",,,,
57,W5ICF,441.875,+,5,,88.5,88.5,23,NN,DIG,5,,"Houston, Hobby Airport",,,,
58,KK5TC,441.95,+,5,Tone,123,88.5,23,NN,FM,5,,Houston,,,,
59,KD5OQS,442.075,+,5,Tone,88.5,88.5,23,NN,FM,5,,Houston,,,,
60,KC5AWF,443.075,+,5,Tone,88.5,88.5,23,NN,FM,5,,Houston,,,,
61,AD5OU,443.525,+,5,Tone,136.5,88.5,23,NN,FM,5,,Houston,,,,
62,N5TRS,443.675,+,5,Tone,103.5,88.5,23,NN,FM,5,,Houston,,,,
63,WD5X,444.225,+,5,Tone,103.5,88.5,23,NN,FM,5,,Houston,,,,
64,K5WH,444.45,+,5,Tone,103.5,88.5,23,NN,FM,5,,Houston,,,,
65,KA5QDG,444.8,+,5,Tone,141.3,88.5,23,NN,FM,5,,"Houston, Ellington Field",,,,
66,W5VOM,1292.1,-,20,,88.5,88.5,23,NN,FM,5,,"Houston, San Felipe Building",,,,
67,W5HDR,1293.2,-,20,,88.5,88.5,23,NN,DV,5,,"Houston, TMC",CQCQCQ,,,0
