https://k9la.us/NM7M_The_Little_Pistol_s_Guide_to_HF_Propagation.pdf

NanoVNA
https://nfarl.org/Meetings/2020/2020-01%20Meeting/NanoVNA%20N4WYE%20Jan%2021,%202020%20v3.pdf
https://qsl.net/g0ftd/other/nano-vna-original/docs/NanoVNA%20User%20Guide-English-reformat-Oct-2-19.pdf

Online SDR
    KiwiSDR

https://www.repeaterbook.com/repeaters/location_search.php?state_id=48&type=city&loc=Houston

https://www.radioreference.com/apps/db/?tab=reports&mid=3&rpt=1&os=400&s=freq
https://www.radioreference.com/apps/db/?tab=reports&mid=3&rpt=1&os=2000&s=freq

Railroad?
160.875 
160.995
161.400
161.445

452.887  	 	 	 	 	 	Fire Disp.
453.350  	 	 	 	 	 	Fire Disp.
453.225  	 	 	 	 	 	Fire Disp.
453.425  	 	 	 	 	 	Fire Disp.
453.700  	 	 	 	 	 	Police Disp.
453.900  	 	 	 	 	 	Police Disp.
460.025  	 	 	 	 	 	Police Disp.
460.050  	 	 	 	 	 	Police Disp.
460.100  	 	 	 	 	 	Police Disp.
460.125  	 	 	 	 	 	Police Disp.
460.150  	 	 	 	 	 	Police Disp.
460.325  	 	 	 	 	 	Police Disp.
460.350  	 	 	 	 	 	Police Disp.
460.450  	 	 	 	 	 	Police Disp.
460.475  	 	 	 	 	 	Police Disp.
460.550  	 	 	 	 	 	Police Disp.