Location,Name,Frequency,Duplex,Offset,Tone,rToneFreq,cToneFreq,DtcsCode,DtcsPolarity,Mode,TStep,Skip,Comment,URCALL,RPT1CALL,RPT2CALL,DVCODE
0,,146.01,,0.6,,88.5,88.5,23,NN,FM,5,,,,,,
1,FRS1,462.5625,,5,,88.5,88.5,23,NN,NFM,12.5,,,,,,
2,FRS2,462.5875,,5,,88.5,88.5,23,NN,NFM,12.5,,,,,,
3,FRS3,462.6125,,5,,88.5,88.5,23,NN,NFM,12.5,,,,,,
4,FRS4,462.6375,,5,,88.5,88.5,23,NN,NFM,12.5,,,,,,
5,FRS5,462.6625,,5,,88.5,88.5,23,NN,NFM,12.5,,,,,,
6,FRS6,462.6875,,5,,88.5,88.5,23,NN,NFM,12.5,,,,,,
7,FRS7,462.7125,,5,,88.5,88.5,23,NN,NFM,12.5,,,,,,
8,FRS8,467.5625,,5,,88.5,88.5,23,NN,NFM,12.5,,,,,,
9,FRS9,467.5875,,5,,88.5,88.5,23,NN,NFM,12.5,,,,,,
10,FRS10,467.6125,,5,,88.5,88.5,23,NN,NFM,12.5,,,,,,
11,FRS11,467.6375,,5,,88.5,88.5,23,NN,NFM,12.5,,,,,,
12,FRS12,467.6625,,5,,88.5,88.5,23,NN,NFM,12.5,,,,,,
13,FRS13,467.6875,,5,,88.5,88.5,23,NN,NFM,12.5,,,,,,
14,FRS14,467.7125,,5,,88.5,88.5,23,NN,NFM,12.5,,,,,,
15,GMRS1,462.55,,5,,88.5,88.5,23,NN,FM,25,,,,,,
16,GMRS2,462.575,,5,,88.5,88.5,23,NN,FM,25,,,,,,
17,GMRS3,462.6,,5,,88.5,88.5,23,NN,FM,25,,,,,,
18,GMRS4,462.625,,5,,88.5,88.5,23,NN,FM,25,,,,,,
19,GMRS5,462.65,,5,,88.5,88.5,23,NN,FM,25,,,,,,
20,GMRS6,462.675,,5,,88.5,88.5,23,NN,FM,25,,,,,,
21,GMRS7,462.7,,5,,88.5,88.5,23,NN,FM,25,,,,,,
22,GMRS8,462.725,,5,,88.5,88.5,23,NN,FM,25,,,,,,
23,MURS 1,151.82,,0,,88.5,88.5,23,NN,NFM,5,,,,,,
24,MURS 2,151.88,,0,,88.5,88.5,23,NN,NFM,5,,,,,,
25,MURS 3,151.94,,0,,88.5,88.5,23,NN,NFM,5,,,,,,
26,Blue Dot,154.57,,0,,88.5,88.5,23,NN,FM,5,,,,,,
27,Green Dot,154.6,,0,,88.5,88.5,23,NN,FM,5,,,,,,
28,WX1PA7,162.55,,0,,88.5,88.5,23,NN,FM,5,,,,,,
29,WX2PA1,162.4,,0,,88.5,88.5,23,NN,FM,5,,,,,,
30,WX3PA4,162.475,,0,,88.5,88.5,23,NN,FM,5,,,,,,
31,WX4PA2,162.425,,0,,88.5,88.5,23,NN,FM,5,,,,,,
32,WX5PA3,162.45,,0,,88.5,88.5,23,NN,FM,5,,,,,,
33,WX6PA5,162.5,,0,,88.5,88.5,23,NN,FM,5,,,,,,
34,WX7PA6,162.525,,0,,88.5,88.5,23,NN,FM,5,,,,,,
35,WX8,161.65,,0,,88.5,88.5,23,NN,FM,5,,,,,,
36,WX9,161.775,,0,,88.5,88.5,23,NN,FM,5,,,,,,
37,WX10,163.275,,0,,88.5,88.5,23,NN,FM,5,,,,,,
38,6m Call,52.525,,0,,88.5,88.5,23,NN,FM,5,,US Call,,,,
39,2m Call,146.52,,0,,88.5,88.5,23,NN,FM,5,,US Call,,,,
40,220 Call,223.5,,0,,88.5,88.5,23,NN,FM,5,,US Call,,,,
41,70cm Call,446,,0,,88.5,88.5,23,NN,FM,5,,US Call,,,,
42,KA5QDG,145.17,-,0.6,Tone,123,123,23,NN,FM,5,,Houston - HOME,,,,
43,N5TRS,145.37,-,0.6,Tone,123,88.5,23,NN,FM,5,,"Houston, Houston Transtar - HOME",,,,
44,WA5TWT,146.7,-,0.6,Tone,103.5,88.5,23,NN,FM,5,,Houston - HOME,,,,
45,K5GZR,146.82,-,0.6,Tone,103.5,88.5,23,NN,FM,5,,Houston - HOME,,,,
46,N5HAR,146.84,-,0.6,Tone,103.5,88.5,23,NN,FM,5,,Houston - HOME,,,,
47,WB5UGT,146.92,-,0.6,Tone,103.5,88.5,23,NN,FM,5,,Houston - HOME,,,,
48,KG5EEO,146.94,-,0.6,Tone,167.9,167.9,23,NN,FM,5,,"Houston, Missouri City Antenna Farm - HOME",,,,
49,W5JUC,146.96,-,0.6,Tone,103.5,88.5,23,NN,FM,5,,Houston - HOME,,,,
50,WD5X,147,+,0.6,Tone,103.5,127.3,23,NN,FM,5,,Houston - HOME,,,,
51,W5ATP,147.08,+,0.6,Tone,103.5,103.5,23,NN,FM,5,,Houston - HOME,,,,
52,W5HDR,147.1,+,0.6,,88.5,88.5,23,NN,DV,5,,"Houston, Transtar - HOME",CQCQCQ,,,0
53,WA5QXE,147.32,+,0.6,Tone,100,88.5,23,NN,FM,5,,Houston - HOME,,,,
54,WD5X,224.1,-,1.6,Tone,103.5,103.5,23,NN,FM,5,,Houston - HOME,,,,
55,WD5X,224.8,-,1.6,Tone,103.5,103.5,23,NN,FM,5,,Houston - HOME,,,,
56,K5ILS,224.96,-,1.6,Tone,88.5,88.5,23,NN,FM,5,,"Houston, Galleria Area? - HOME",,,,
57,K5DX,442,+,5,Tone,103.5,103.5,23,NN,FM,5,,Houston - HOME,,,,
58,WA5F,442.5,+,5,Tone,123,88.5,23,NN,FM,5,,Houston - HOME,,,,
59,KD5HKQ,443.375,+,5,Tone,103.5,88.5,23,NN,FM,5,,Pasadena - HOME,,,,
60,N5KJN,443.4,+,5,Tone,141.3,141.3,23,NN,FM,5,,Pearland - HOME,,,,
61,KB5TFE,443.725,+,5,Tone,110.9,88.5,23,NN,FM,5,,Houston - HOME,,,,
62,WB5UGT,443.825,+,5,Tone,103.5,88.5,23,NN,FM,5,,Houston - HOME,,,,
63,WB5TUF,444,+,5,Tone,103.5,103.5,23,NN,Auto,5,,Houston - HOME,,,,
64,W5JSC,444.025,+,5,Tone,156.7,88.5,23,NN,FM,5,,Houston - HOME,,,,
65,W5PAS,444.275,+,5,Tone,103.5,103.5,23,NN,FM,5,,Pasadena - HOME,,,,
66,N5ZUA,444.3,+,5,Tone,123,103.5,23,NN,FM,5,,"Houston, Chase Bank Building - HOME",,,,
67,W5NC,444.375,+,5,Tone,103.5,88.5,23,NN,FM,5,,Houston,,,,
68,WD5BQN,444.4,+,5,Tone,103.5,88.5,23,NN,FM,5,,"Houston, Texas Medical Center",,,,
69,W5RPT,444.55,+,5,Tone,103.5,88.5,23,NN,FM,5,,Houston,,,,
70,K5SOH,29.68,-,0.1,Tone,123,88.5,23,NN,FM,5,,Rose Hill,,,,
71,K5WH,52.25,-,1,Tone,103.5,88.5,23,NN,FM,5,,Houston,,,,
72,KD5QCZ,53.03,-,1,Tone,156.7,156.7,23,NN,FM,5,,Seabrook,,,,
73,K5SOH,53.27,-,1,Tone,123,88.5,23,NN,FM,5,,Rose Hill,,,,
74,KA5QDG,145.11,-,0.6,Tone,123,123,23,NN,FM,5,,Alvin,,,,
75,NB5F,145.15,-,0.6,,88.5,88.5,23,NN,FM,5,,Nassau Bay,,,,
76,W5BSA,145.19,-,0.6,Tone,123,88.5,23,NN,FM,5,,"Houston, BP Building",,,,
77,K5PLD,145.21,-,0.6,Tone,167.9,88.5,23,NN,FM,5,,Alvin,,,,
78,KD5OQS,145.23,-,0.6,Tone,107.2,107.2,23,NN,FM,5,,Houston,,,,
79,KD5HKQ,145.25,-,0.6,Tone,167.9,167.9,23,NN,FM,5,,Pasadena,,,,
80,KA9JLM,145.25,-,0.6,Tone,141.3,88.5,23,NN,FM,5,,Alvin,,,,
81,W5PAS,145.27,-,0.6,Tone,123,123,23,NN,FM,5,,"Pasadena, El Jardin",,,,
82,W5PAS,145.29,-,0.6,Tone,103.5,103.5,23,NN,FM,5,,Pasadena,,,,
83,NE5TX,145.31,-,0.6,Tone,167.9,167.9,23,NN,FM,5,,Baytown,,,,
84,W5INP,145.34,-,0.6,Tone,88.5,88.5,23,NN,FM,5,,Houston,,,,
85,KF5KHM,145.34,-,0.6,,88.5,88.5,23,NN,FM,5,,Katy,,,,
86,KA5QDG,145.39,-,0.6,Tone,123,123,23,NN,FM,5,,Clear Lake Shores,,,,
87,KA5QDG,145.39,-,0.6,Tone,103.5,123,23,NN,FM,5,,Chocolate Bayou,,,,
88,WR5GC,145.41,-,0.6,Tone,131.8,88.5,23,NN,FM,5,,League City,,,,
89,W5SI,145.43,-,0.6,,88.5,88.5,23,NN,Auto,5,,Kingwood,,,,
90,KD5HKQ,145.45,-,0.6,Tone,127.3,127.3,23,NN,FM,5,,Pasadena,,,,
91,KD5HKQ,145.45,-,0.6,Tone,103.5,88.5,23,NN,FM,5,,Houston,,,,
92,W5RPT,145.47,-,0.6,Tone,123,88.5,23,NN,FM,5,,"Houston, Memorial Hermann SW Hospital ",,,,
93,KD5HAL,145.49,-,0.6,Tone,123,88.5,23,NN,FM,5,,Richmond,,,,
94,KG5FAE,146,+,0.6,,88.5,88.5,23,NN,DV,5,,Houston,CQCQCQ,,,0
95,,146.3,,0,Tone,127.3,88.5,23,NN,FM,5,,Bellaire,,,,
96,KG5FYV,146.45,,0,Tone,103.5,103.5,23,NN,FM,5,,Houston,,,,
97,KG5FYV,146.45,,0,Tone,94.8,88.5,23,NN,FM,5,,East Houston,,,,
98,K5PLD,146.49,+,147.49,,88.5,88.5,23,NN,DV,5,,Alvin,CQCQCQ,,,0
99,W5RRR,146.64,-,0.6,Tone,123,88.5,23,NN,FM,5,,"Houston, JSC Building 1",,,,
100,W5NC,146.66,-,0.6,Tone,100,88.5,23,NN,FM,5,,Klein,,,,
101,KA5AKG,146.66,-,0.6,Tone,141.3,88.5,23,NN,FM,5,,Houston,,,,
102,,146.68,-,0.6,Tone,146.2,146.2,23,NN,FM,5,,Spring,,,,
103,K5IHK,146.72,-,0.6,Tone,123,88.5,23,NN,FM,5,,Rose Hill,,,,
104,KA5QDG,146.74,-,0.6,Tone,123,123,23,NN,FM,5,,Alvin,,,,
105,KA5QDG,146.74,-,0.6,Tone,103.5,88.5,23,NN,FM,5,,"Houston, Memorial Hospital SE",,,,
106,KA5QDG,146.74,-,0.6,Tone,107.2,123,23,NN,FM,5,,Webster,,,,
107,KA5QDG,146.74,-,0.6,Tone,127.3,127.3,23,NN,FM,5,,Morgan's Point,,,,
108,K5WH,146.76,-,0.6,Tone,103.5,88.5,23,NN,FM,5,,Houston,,,,
109,K5BAY,146.78,-,0.6,Tone,100,88.5,23,NN,FM,5,,Baytown,,,,
110,N5HOU,146.8,-,0.6,Tone,103.5,103.5,23,NN,FM,5,,The Woodlands,,,,
111,K5HOU,146.86,-,0.6,Tone,100,88.5,23,NN,FM,5,,"Clear Lake, Boeing Building 3700",,,,
112,KA5QDG,146.9,-,0.6,Tone,123,123,23,NN,FM,5,,La Marque,,,,
113,W5JSC,146.98,-,0.6,Tone,156.7,88.5,23,NN,FM,5,,Magnolia,,,,
114,KA5QDG,147.06,+,0.6,Tone,123,88.5,23,NN,FM,5,,"Houston, Astrodome",,,,
115,KD5GR,147.12,+,0.6,Tone,167.9,167.9,23,NN,FM,5,,Friendswood,,,,
116,WR5TC,147.14,+,0.6,Tone,167.9,88.5,23,NN,FM,5,,Texas City,,,,
117,K5PLD,147.16,+,0.6,Tone,167.9,131.8,23,NN,FM,5,,Pearland,,,,
118,KT5TX,147.2,+,0.6,Tone,141.3,141.3,23,NN,FM,5,,Katy,,,,
119,K5PLD,147.22,+,0.6,Tone,167.9,167.9,23,NN,FM,5,,Pearland,,,,
120,KD5HKQ,147.24,+,0.6,Tone,127.3,127.3,23,NN,FM,5,,Sugar Land,,,,
121,W5SFD,147.26,+,0.6,Tone,162.2,88.5,23,NN,FM,5,,"Seabrook, City Hall",,,,
122,W5SI,147.28,+,0.6,Tone,192.8,192.8,23,NN,Auto,5,,"Atascocita, Atascocita Fire Department Station 29",,,,
123,W5SI,147.28,+,0.6,Tone,103.5,103.5,23,NN,Auto,5,,Kingwood,,,,
124,WA5DTR,147.3,+,0.6,Tone,151.4,151.4,23,NN,FM,5,,"Houston, Houston NW Medical Center",,,,
125,KB5FLX,147.34,+,0.6,Tone,103.5,88.5,23,NN,FM,5,,Tamina,,,,
126,K5DX,147.36,+,0.6,Tone,100,88.5,23,NN,FM,5,,Houston,,,,
127,W5ZMV,147.38,+,0.6,,88.5,88.5,23,NN,DIG,5,,Tomball,,,,
128,KG5FYV,147.53,,0,,88.5,94.8,23,NN,FM,5,,Houston,,,,
129,KB2WF,147.58,,0,,88.5,88.5,23,NN,DV,5,,Spring,CQCQCQ,,,0
130,K5SOH,223.84,-,1.6,Tone,123,88.5,23,NN,FM,5,,Rose Hill,,,,
131,KA5QDG,223.96,-,1.6,Tone,123,88.5,23,NN,FM,5,,Alvin,,,,
132,KD0NN,224,-,1.6,Tone,103.5,103.5,23,NN,FM,5,,"Humble, KSBJ radio station",,,,
133,KB5IAM,224.16,-,1.6,Tone,103.5,88.5,23,NN,FM,5,,Houston,,,,
134,WA5TWT,224.2,-,1.6,,88.5,88.5,23,NN,FM,5,,Houston,,,,
135,W5WP,224.26,-,1.6,,88.5,88.5,23,NN,FM,5,,Houston,,,,
136,KD5HKQ,224.3,-,1.6,Tone,103.5,88.5,23,NN,FM,5,,Houston,,,,
137,KA5QDG,224.32,-,1.6,Tone,123,88.5,23,NN,FM,5,,Houston,,,,
138,KD5HKQ,224.4,-,1.6,Tone,103.5,88.5,23,NN,FM,5,,Pasadena,,,,
139,KD5QCZ,224.48,-,1.6,Tone,156.7,88.5,23,NN,FM,5,,Pasadena,,,,
140,WB5ITT,224.5,-,1.6,,88.5,88.5,23,NN,FM,5,,Houston,,,,
141,K5ILS,224.96,-,1.6,Tone,88.5,88.5,23,NN,FM,5,,"Houston, Galleria Area",,,,
142,KG5FAE,440,+,5,,88.5,88.5,23,NN,DV,5,,Houston,CQCQCQ,,,0
143,K5MAP,440.3,+,5,,88.5,88.5,23,NN,DIG,5,,Klein,,,,
144,KF5KHM,440.575,+,5,,88.5,88.5,23,NN,DV,5,,Spring,CQCQCQ,,,0
145,W5HDR,440.6,+,5,,88.5,88.5,23,NN,DV,5,,"Houston, TMC",CQCQCQ,,,0
146,W5ZMV,440.625,+,5,,88.5,88.5,23,NN,DIG,5,,Texas City,,,,
147,K3JMC,440.6875,+,5,,88.5,88.5,23,NN,DIG,5,,Fresno,,,,
148,W5JSC,440.7125,+,5,,88.5,88.5,23,NN,DIG,5,,Magnolia,,,,
149,KA5PLE,441.175,+,5,,88.5,88.5,23,NN,DIG,5,,"Houston, South Main and 610",,,,
150,KB5ELT,441.3,+,5,Tone,100,88.5,23,NN,FM,5,,Houston,,,,
151,KW5O,441.325,+,5,,88.5,88.5,23,NN,FM,5,,Oak Ridge North,,,,
152,WB5RF,441.325,+,5,,88.5,88.5,23,NN,DIG,5,,Richmond,,,,
153,KC5DAQ,441.525,+,5,Tone,100,88.5,23,NN,FM,5,,Waller,,,,
154,KC5TCT,441.6,+,5,Tone,203.5,88.5,23,NN,FM,5,,Channelview,,,,
155,KB5FLX,441.6,+,5,Tone,127.3,88.5,23,NN,FM,5,,Magnolia,,,,
156,KD5DFB,441.775,+,5,,88.5,88.5,23,NN,DIG,5,,"Houston, Transtar",,,,
157,KK5XQ,441.8,+,5,Tone,103.5,88.5,23,NN,FM,5,,Mont Belvieu,,,,
158,AK5G,441.825,+,5,,88.5,88.5,23,NN,FM,5,,Bellaire,,,,
159,W5ICF,441.875,+,5,,88.5,88.5,23,NN,DIG,5,,"Houston, Hobby Airport",,,,
160,KK5TC,441.95,+,5,Tone,123,88.5,23,NN,FM,5,,Houston,,,,
161,W5EMR,441.975,+,5,Tone,123,88.5,23,NN,FM,5,,Katy,,,,
162,K5BS,442.025,+,5,Tone,103.5,88.5,23,NN,FM,5,,Texas City,,,,
163,KB5IJF,442.05,+,5,Tone,103.5,88.5,23,NN,FM,5,,Crosby,,,,
164,KD5OQS,442.075,+,5,Tone,88.5,88.5,23,NN,FM,5,,Houston,,,,
165,KA5QDG,442.2,+,5,Tone,103.5,103.5,23,NN,FM,5,,Alvin,,,,
166,WR5GC,442.225,+,5,Tone,131.8,88.5,23,NN,FM,5,,League City,,,,
167,WD8RZA,442.35,+,5,Tone,131.8,88.5,23,NN,FM,5,,Katy,,,,
168,WA5LQR,442.375,+,5,Tone,103.5,88.5,23,NN,FM,5,,"Clear Lake Shores, water tower",,,,
169,,442.4,+,5,,88.5,88.5,23,NN,DIG,5,,Hockley,,,,
170,NB5F,442.475,+,5,,88.5,88.5,23,NN,FM,5,,Nassau Bay,,,,
171,KD5DFB,442.6,+,5,,88.5,88.5,23,NN,P25,5,,Cypress,,,,
172,N5LUY,442.65,+,5,Tone,156.7,88.5,23,NN,FM,5,,Cypress,,,,
173,KB5FLX,442.675,+,5,,88.5,88.5,23,NN,DIG,5,,The Woodlands,,,,
174,WB5UGT,442.7,+,5,Tone,103.5,88.5,23,NN,FM,5,,Spring,,,,
175,K5HOU,442.75,+,5,Tone,103.5,88.5,23,NN,FM,5,,"Clear Lake, Boeing Building",,,,
176,KA9JLM,442.775,+,5,Tone,141.3,88.5,23,NN,FM,5,,Alvin,,,,
177,K5JLK,442.8,+,5,Tone,146.2,88.5,23,NN,FM,5,,Spring,,,,
178,N5LUY,442.85,+,5,,88.5,88.5,23,NN,DIG,5,,La Porte,,,,
179,W5JON,442.95,+,5,Tone,123,88.5,23,NN,FM,5,,Magnolia,,,,
180,KB5FLX,443.025,+,5,Tone,103.5,88.5,23,NN,FM,5,,Magnolia,,,,
181,K5PLD,443.05,+,5,,88.5,88.5,23,NN,DIG,5,,Pearland,,,,
182,KC5AWF,443.075,+,5,Tone,88.5,88.5,23,NN,FM,5,,Houston,,,,
183,KA5QDG,443.1,+,5,Tone,103.5,103.5,23,NN,FM,5,,Morgan's Point,,,,
184,K5IHK,443.1,+,5,Tone,123,88.5,23,NN,FM,5,,Rose Hill,,,,
185,K5CAP,443.175,+,5,Tone,179.9,179.9,23,NN,FM,5,,"Channelview, I-10 E &amp; BW8 E",,,,
186,KC0EJX,443.225,+,5,Tone,203.5,88.5,23,NN,FM,5,,The Woodlands,,,,
187,KE5VJH,443.25,+,5,Tone,127.3,88.5,23,NN,FM,5,,"Seabrook, City Hall",,,,
188,WB5ZMY,443.45,+,5,Tone,114.8,88.5,23,NN,FM,5,,Kemah,,,,
189,AD5OU,443.525,+,5,Tone,136.5,88.5,23,NN,FM,5,,Houston,,,,
190,W5SI,443.55,+,5,Tone,103.5,88.5,23,NN,Auto,5,,"Atascocita, Atascocita Fire Department Station 29",,,,
191,KC5TCT,443.6,+,5,Tone,103.5,88.5,23,NN,FM,5,,Channelview,,,,
192,N5TRS,443.675,+,5,Tone,103.5,88.5,23,NN,FM,5,,Houston,,,,
193,K5BAY,443.8,+,5,Tone,100,88.5,23,NN,FM,5,,Baytown,,,,
194,W5JSC,443.85,+,5,Tone,156.7,88.5,23,NN,DIG,5,,Magnolia,,,,
195,KB5IAM,443.875,+,5,Tone,173.8,88.5,23,NN,FM,5,,Baytown,,,,
196,W5WFD,444.1,+,5,Tone,136.5,136.5,23,NN,FM,5,,"The Woodlands, Woodlands Fire Station",,,,
197,KB5NNP,444.125,+,5,Tone,103.5,88.5,23,NN,FM,5,,Crosby,,,,
198,WD5X,444.225,+,5,Tone,103.5,88.5,23,NN,FM,5,,Houston,,,,
199,KA2EEU,444.35,+,5,Tone,103.5,88.5,23,NN,FM,5,,Spring,,,,
200,K5WH,444.45,+,5,Tone,103.5,88.5,23,NN,FM,5,,Houston,,,,
201,N5LUY,444.475,+,5,,88.5,88.5,23,NN,DIG,5,,Cypress,,,,
202,KD5HAL,444.525,+,5,Tone,123,88.5,23,NN,FM,5,,Richmond,,,,
203,W5ZMV,444.625,+,5,,88.5,88.5,23,NN,DIG,5,,Tomball,,,,
204,KD0RW,444.675,+,5,Tone,192.8,88.5,23,NN,FM,5,,Magnolia,,,,
205,KC5DAQ,444.7,+,5,,88.5,88.5,23,NN,DIG,5,,Waller,,,,
206,KA5AXV,444.75,+,5,,88.5,88.5,23,NN,DIG,5,,Alvin,,,,
207,N5LUY,444.75,+,5,,88.5,88.5,23,NN,DIG,5,,Conroe,,,,
208,W5TWO,444.775,+,5,Tone,103.5,103.5,23,NN,FM,5,,Crosby,,,,
209,KA5QDG,444.8,+,5,Tone,141.3,88.5,23,NN,FM,5,,"Houston, Ellington Field",,,,
210,W5SI,444.825,+,5,Tone,103.5,103.5,23,NN,Auto,5,,Kingwood,,,,
211,KD5GR,444.875,+,5,Tone,123,88.5,23,NN,Auto,5,,Friendswood,,,,
212,WA5AIR,444.9,+,5,Tone,103.5,103.5,23,NN,FM,5,,Montgomery,,,,
213,NE5TX,444.975,+,5,Tone,167.9,167.9,23,NN,Auto,5,,"Baytown, Fred Hartman Bridge",,,,
214,KE5CWO,446.1,,0,Tone,141.3,88.5,23,NN,FM,5,,Channelview,,,,
215,N5TM,927.0625,-,25,Tone,203.5,88.5,23,NN,FM,5,,Katy,,,,
216,KC5PCB,927.2,-,25,Tone,123,88.5,23,NN,FM,5,,Rose Hill,,,,
217,KF5KHM,1272.2,+,20,,88.5,88.5,23,NN,DV,5,,Spring,CQCQCQ,,,0
218,W5VOM,1292.1,-,20,,88.5,88.5,23,NN,FM,5,,"Houston, San Felipe Building",,,,
219,W5HDR,1293.2,-,20,,88.5,88.5,23,NN,DV,5,,"Houston, TMC",CQCQCQ,,,0
220,WD5EMS,29.64,-,0.1,Tone,110.9,110.9,23,NN,FM,5,,"Round Rock, St Davids Surgical Hospital",,,,
221,WD5EMS,52.95,-,1,Tone,100,100,23,NN,FM,5,,"Round Rock, St Davids Surgical Hospital",,,,
222,K5AB,53.05,-,1,Tone,88.5,88.5,23,NN,FM,5,,Georgetown,,,,
223,WB5PCV,53.67,-,1,Tone,103.5,88.5,23,NN,FM,5,,"Austin, UT Austin",,,,
224,N5ZUA,145.11,-,0.6,Tone,103.5,88.5,23,NN,FM,5,,"Austin, Westlake Hills",,,,
225,AD5JT,145.15,-,0.6,Tone,136.5,136.5,23,NN,FM,5,,Lockhart,,,,
226,KB5HTB,145.17,-,0.6,Tone,88.5,88.5,23,NN,FM,5,,Del Valle,,,,
227,KA9LAY,145.21,-,0.6,Tone,97.4,88.5,23,NN,FM,5,,Jollyville,,,,
228,N5TT,145.25,-,0.6,Tone,162.2,88.5,23,NN,FM,5,,Georgetown,,,,
229,WD5EMS,145.33,-,0.6,Tone,100,88.5,23,NN,Auto,5,,Round Rock,,,,
230,K5OQ,145.35,-,0.6,Tone,114.8,114.8,23,NN,Auto,5,,Smithville,,,,
231,KC5WLF,145.37,-,0.6,Tone,103.5,103.5,23,NN,Auto,5,,Cedar Park,,,,
232,N5KUQ,145.39,-,0.6,Tone,103.5,103.5,23,NN,FM,5,,"Marble Falls, Hidden Falls Adventure Park",,,,
233,N5FRT,145.4,-,0.6,Tone,114.8,114.8,23,NN,FM,5,,Rosanky,,,,
234,N5FRT,145.4,-,0.6,Tone,114.8,114.8,23,NN,FM,5,,Bastrop,,,,
235,WB5PCV,145.41,-,0.6,Tone,103.5,103.5,23,NN,FM,5,,Lakeway,,,,
236,KE5AMB,145.43,-,0.6,Tone,114.8,114.8,23,NN,P25,5,,"Dale, Flag Hill",,,,
237,N5JFP,145.43,,0,Tone,88.5,88.5,23,NN,DV,5,,Marble Falls,CQCQCQ,,,0
238,N5TT,145.45,-,0.6,Tone,162.2,88.5,23,NN,FM,5,,Taylor,,,,
239,N3ERC,145.47,-,0.6,Tone,114.8,114.8,23,NN,FM,5,,Taylor,,,,
240,WB5PCV,146.61,-,0.6,Tone,103.5,103.5,23,NN,FM,5,,Austin,,,,
241,N5TT,146.64,-,0.6,Tone,162.2,162.2,23,NN,FM,5,,Georgetown,,,,
242,KE5ZW,146.68,-,0.6,Tone,123,123,23,NN,P25,5,,Cedar Park,,,,
243,N5MNW,146.7,-,0.6,Tone,110.9,110.9,23,NN,FM,5,,Round Rock,,,,
244,W5MIX,146.74,-,0.6,Tone,110.9,88.5,23,NN,FM,5,,Dripping Springs,,,,
245,W5KA,146.78,-,0.6,,88.5,88.5,23,NN,DV,5,,"Austin, South Austin Med Ctr",CQCQCQ,,,0
246,KC5WLF,146.84,-,0.6,Tone,103.5,103.5,23,NN,FM,5,,Cedar Park,,,,
247,N0GSZ,146.86,-,0.6,Tone,146.2,146.2,23,NN,P25,5,,Austin,,,,
248,W5KA,146.88,-,0.6,Tone,107.2,107.2,23,NN,Auto,5,,"Austin, Pickle Research Center ",,,,
249,W3MRC,146.9,-,0.6,Tone,100,88.5,23,NN,FM,5,,Cedar Park,,,,
250,W5DK,146.92,-,0.6,Tone,131.8,131.8,23,NN,FM,5,,"San Marcos , Devils Backbone",,,,
251,W5KA,146.94,-,0.6,Tone,107.2,107.2,23,NN,FM,5,,"Austin, Buckman Mountain",,,,
252,W2MN,146.98,-,0.6,Tone,103.5,88.5,23,NN,FM,5,,Cedar Park,,,,
253,KE5LOT,147.05,+,0.6,Tone,114.8,114.8,23,NN,Auto,5,,Kyle,,,,
254,W5FUA,147.06,+,0.6,Tone,103.5,88.5,23,NN,FM,5,,Wimberley,,,,
255,NA6M,147.08,+,0.6,Tone,100,100,23,NN,FM,5,,Georgetown,,,,
256,W5CTX,147.1,+,0.6,Tone,141.3,141.3,23,NN,FM,5,,Wimberley,,,,
257,W2MN,147.12,+,0.6,Tone,103.5,88.5,23,NN,FM,5,,Cedar Park,,,,
258,N5OAK,147.25,+,0.6,Tone,114.8,88.5,23,NN,FM,5,,DRIPPING SPRINGS ,,,,
259,N5TXR,147.3,+,0.6,Tone,131.8,131.8,23,NN,FM,5,,Lakeway,,,,
260,N5OAK,147.32,+,0.6,Tone,114.8,114.8,23,NN,FM,5,,"Austin, Oak Hill",,,,
261,NA6M,147.34,+,0.6,Tone,100,88.5,23,NN,FM,5,,Bastrop,,,,
262,WA5VTV,147.36,+,0.6,Tone,131.8,131.8,23,NN,FM,5,,"Austin, Buckman Mtn",,,,
263,K5MPS,147.52,,0,Tone,233.6,88.5,23,NN,FM,5,,San Marcos,,,,
264,K5FX,147.57,,0,,88.5,88.5,23,NN,FM,5,,Austin,,,,
265,WD5EMS,224.36,-,1.6,Tone,100,100,23,NN,FM,5,,"Round Rock, St Davids Surgical Hospital",,,,
266,KG5BZ,224.48,-,1.6,Tone,103.5,88.5,23,NN,FM,5,,Pflugerville,,,,
267,W5KA,224.8,-,1.6,Tone,110.9,88.5,23,NN,FM,5,,Austin,,,,
268,KC5WLF,224.84,-,1.6,Tone,103.5,88.5,23,NN,FM,5,,Lago Vista,,,,
269,WB5PCV,224.94,-,1.6,,88.5,88.5,23,NN,FM,5,,Austin,,,,
270,N5JFP,440.6,+,5,Tone,88.5,88.5,23,NN,DV,5,,Marble Falls,CQCQCQ,,,0
271,W5KA,440.65,+,5,,88.5,88.5,23,NN,DV,5,,"Austin, South Austin Hospital",CQCQCQ,,,0
272,N5OAK,441.3,+,5,,88.5,88.5,23,NN,DIG,5,,"Austin, North Central Austin",,,,
273,K5TMT,441.3125,+,5,Tone,107.2,107.2,23,NN,FM,5,,Leander,,,,
274,KA5D,441.325,+,5,Tone,97.4,97.4,23,NN,FM,5,,"Austin, University of Texas",,,,
275,KE5PME,441.375,+,5,Tone,186.2,88.5,23,NN,FM,5,,"Austin, FM 969",,,,
276,W5CGU,441.5,+,5,Tone,162.2,162.2,23,NN,FM,5,,Cedar Park,,,,
277,AC5PS,441.5625,+,5,,88.5,88.5,23,NN,Auto,5,,"Mustang Ridge, HWY 130/21 intersection",,,,
278,N5KF,441.575,+,5,Tone,100,88.5,23,NN,FM,5,,Georgetown,,,,
279,KE5RS,441.6,+,5,Tone,100,100,23,NN,FM,5,,"Leander, Cedar Park Hospital",,,,
280,K5SCT,441.625,+,5,Tone,103.5,88.5,23,NN,FM,5,,Georgetown,,,,
281,KG5DRT,441.6625,+,5,Tone,114.8,114.8,23,NN,FM,5,,Austin,,,,
282,K5LBJ,441.675,+,5,Tone,131.8,131.8,23,NN,FM,5,,Austin,,,,
283,KM5MQ,441.7,+,5,Tone,110.9,88.5,23,NN,FM,5,,Round Rock,,,,
284,N5YQ,441.75,+,5,Tone,77,88.5,23,NN,FM,5,,Austin,,,,
285,N5OAK,441.775,+,5,Tone,114.8,88.5,23,NN,FM,5,,Austin,,,,
286,KC5CFU,441.825,+,5,Tone,114.8,88.5,23,NN,FM,5,,Pflugerville,,,,
287,N5JGX,441.875,+,5,Tone,88.5,88.5,23,NN,FM,5,,Austin,,,,
288,WA6KGI,441.925,+,5,Tone,88.5,88.5,23,NN,FM,5,,Austin,,,,
289,KA9LAY,441.975,+,5,Tone,97.4,88.5,23,NN,FM,5,,Austin,,,,
290,KA6ATN,442,+,5,Tone,186.2,88.5,23,NN,FM,5,,"Austin, Cambridge Tower",,,,
291,W5TRI,442.025,+,5,Tone,114.8,88.5,23,NN,FM,5,,Austin,,,,
292,KB5HTB,442.0625,+,5,,88.5,88.5,23,NN,Auto,5,,Austin,,,,
293,KB5PRZ,442.15,+,5,,88.5,88.5,23,NN,FM,5,,"Austin, The University of Texas",,,,
294,K5AB,442.2,+,5,Tone,100,100,23,NN,FM,5,,Austin,,,,
295,KN5X,442.275,+,5,Tone,110.9,88.5,23,NN,Auto,5,,Austin,,,,
296,K5FX,442.4,+,5,Tone,141.3,141.3,23,NN,FM,5,,Austin,,,,
297,KI4MS,442.425,+,5,Tone,100,100,23,NN,FM,5,,Manor,,,,
298,WB5UGT,442.45,+,5,Tone,141.3,88.5,23,NN,FM,5,,Austin,,,,
299,KE3D,442.475,+,5,Tone,127.3,88.5,23,NN,FM,5,,Austin,,,,
300,WB5FNZ,442.5,+,5,Tone,162.2,162.2,23,NN,FM,5,,Austin,,,,
301,WA5AP,442.55,+,5,Tone,141.3,88.5,23,NN,FM,5,,Wimberley,,,,
302,K5TCR,442.6,+,5,Tone,141.3,88.5,23,NN,FM,5,,Austin,,,,
303,KE5ZW,442.65,+,5,,88.5,88.5,23,NN,DIG,5,,Cedar Park,,,,
304,KG5PVG,442.7,+,5,Tone,123,88.5,23,NN,FM,5,,"San Marcos, Texas State University",,,,
305,WB6ARE,442.725,+,5,Tone,114.8,114.8,23,NN,FM,5,,Bastrop,,,,
306,KC5WXT,442.8,+,5,Tone,114.8,114.8,23,NN,FM,5,,Elgin,,,,
307,N5KUQ,442.85,+,5,Tone,103.5,103.5,23,NN,FM,5,,Marble Falls,,,,
308,KE5AMB,443,+,5,Tone,114.8,114.8,23,NN,FM,5,,"Dale, Flag Hill",,,,
309,K5TRA,443.075,+,5,Tone,123,123,23,NN,P25,5,,Austin,,,,
310,N5ECG,443.1,+,5,Tone,110.9,88.5,23,NN,FM,5,,Round Rock,,,,
311,WB6ARE,443.175,+,5,Tone,114.8,88.5,23,NN,FM,5,,Bastrop,,,,
312,AE5BA,443.525,+,5,Tone,114.8,88.5,23,NN,FM,5,,San Marcos,,,,
313,AI5TX,443.65,+,5,Tone,114.8,88.5,23,NN,FM,5,,San Marcos,,,,
314,K5OQ,443.75,+,5,Tone,114.8,114.8,23,NN,FM,5,,Bastrop,,,,
315,KE5ZW,443.775,+,5,Tone,131.8,88.5,23,NN,FM,5,,Georgetown,,,,
316,WA5VTV,443.8,+,5,Tone,131.8,131.8,23,NN,FM,5,,Austin,,,,
317,WB5PCV,444,+,5,Tone,107.2,107.2,23,NN,FM,5,,Austin,,,,
318,WA5AP,444.05,+,5,Tone,141.3,141.3,23,NN,FM,5,,Cedar Creek,,,,
319,W5KA,444.1,+,5,Tone,103.5,103.5,23,NN,FM,5,,Austin,,,,
320,WA5PAX,444.15,+,5,Tone,114.8,114.8,23,NN,FM,5,,Wimberley,,,,
321,W5KA,444.2,+,5,Tone,107.2,88.5,23,NN,FM,5,,"Austin, Buckman Mountain",,,,
322,NH7R,444.25,+,5,,88.5,88.5,23,NN,Auto,5,,"Georgetown, KGTU Airport",,,,
323,W5MOT,444.325,+,5,Tone,186.2,88.5,23,NN,FM,5,,Dripping Springs,,,,
324,WB5PCV,444.4,+,5,Tone,103.5,103.5,23,NN,FM,5,,Lakeway,,,,
325,W5ERX,444.45,+,5,Tone,114.8,88.5,23,NN,FM,5,,Canyon Lake,,,,
326,K5TRA,444.5,+,5,Tone,110.9,110.9,23,NN,FM,5,,Johnson City,,,,
327,NA6M,444.525,+,5,Tone,100,88.5,23,NN,FM,5,,Georgetown,,,,
328,W3MRC,444.6,+,5,Tone,100,88.5,23,NN,FM,5,,Cedar Park,,,,
329,K5KTF,444.625,+,5,Tone,100,100,23,NN,FM,5,,Cedar Park,,,,
330,AA5R,444.775,+,5,Tone,110.9,110.9,23,NN,FM,5,,Austin,,,,
331,AE5WW,444.85,+,5,Tone,103.5,103.5,23,NN,Auto,5,,"Austin, Water Tower",,,,
332,WD5EMS,444.875,+,5,Tone,100,100,23,NN,Auto,5,,"Round Rock, St Davids Surgical Hospital",,,,
333,KC5WLF,444.95,+,5,Tone,110.9,110.9,23,NN,FM,5,,Austin,,,,
334,KA5D,445,,0,Tone,67,67,23,NN,FM,5,,"Austin, University of Texas",,,,
335,K5MPS,446.15,,0,,88.5,88.5,23,NN,FM,5,,San Marcos,,,,
336,K5TRA,927.0125,-,25,Tone,225.7,225.7,23,NN,FM,5,,Austin,,,,
337,K5TRA,927.0375,-,25,Tone,141.3,141.3,23,NN,FM,5,,Canyon Lake,,,,
338,WD5EMS,927.05,-,25,Tone,110.9,110.9,23,NN,FM,5,,"Round Rock, St Davids Surgical Hospital",,,,
339,K5TRA,927.0625,-,25,Tone,203.5,203.5,23,NN,FM,5,,Georgetown,,,,
340,KA5D,927.075,-,25,Tone,218.1,218.1,23,NN,FM,5,,"Austin, University of Texas",,,,
341,K5TRA,927.0875,-,25,Tone,151.4,151.4,23,NN,FM,5,,Bee Cave,,,,
342,K5TRA,927.1125,-,25,DTCS,88.5,88.5,432,NN,FM,5,,Austin,,,,
343,K5TRA,927.125,-,25,Tone,103.5,103.5,23,NN,FM,5,,Lago Vista,,,,
344,K5TRA,927.1875,-,25,Tone,151.4,151.4,23,NN,P25,5,,Austin,,,,
345,N5MHI,1292.4,-,20,Tone,107.2,88.5,23,NN,FM,5,,"Austin, Buckman Mountain",,,,
346,WD5EMS,1293,-,20,Tone,100,100,23,NN,FM,5,,"Round Rock, St Davids Surgical Hospital",,,,
347,W5KA,1293.1,-,20,,88.5,88.5,23,NN,DV,5,,"Austin, South Austin Med Ctr",CQCQCQ,,,0
348,W5CTX,145.23,-,0.6,Tone,123,88.5,23,NN,FM,5,,Luling,,,,
349,N5ZUA,146.8,-,0.6,Tone,100,67,23,NN,FM,5,,"La Grange, US 77 south on tower",,,,
350,KC5WXT,147.01,+,0.6,Tone,114.8,114.8,23,NN,FM,5,,Smithville,,,,
351,N5ZUA,147.2,+,0.6,Tone,103.5,88.5,23,NN,FM,5,,Bastrop,,,,
352,NE5DX,147.22,+,0.6,Tone,114.8,88.5,23,NN,FM,5,,Giddings,,,,
353,N5FRT,147.38,+,0.6,Tone,114.8,114.8,23,NN,Auto,5,,"La Grange, Hostyn",,,,
354,N5FRT,441.3,+,5,Tone,114.8,88.5,23,NN,FM,5,,"La Grange, Hostyn",,,,
355,N5FRT,441.55,+,5,Tone,114.8,114.8,23,NN,DIG,5,,La Grange,,,,
356,KE5DX,442.575,+,5,Tone,114.8,88.5,23,NN,FM,5,,Giddings,,,,
357,WB5UGT,444.3,+,5,Tone,203.5,88.5,23,NN,FM,5,,Bastrop,,,,
358,WB5UGT,444.725,+,5,Tone,141.3,88.5,23,NN,FM,5,,La Grange,,,,
359,K5TRA,927.1625,-,25,Tone,151.4,88.5,23,NN,FM,5,,"La Grange, Hostyn",,,,
360,KG5HFI,53.23,-,1,Tone,162.2,162.2,23,NN,FM,5,,Temple,,,,
361,KE5RCS,145.13,-,0.6,,88.5,88.5,23,NN,DV,5,,Walburg,CQCQCQ,,,0
362,W5ZDN,145.15,-,0.6,Tone,123,88.5,23,NN,FM,5,,Moody,,,,
363,W5RP,145.15,-,0.6,Tone,162.2,88.5,23,NN,FM,5,,Kerrville,,,,
364,W5GTS,145.17,-,0.6,Tone,162.2,162.2,23,NN,FM,5,,Gatesville,,,,
365,WD5EMS,145.19,-,0.6,,88.5,88.5,23,NN,Auto,5,,Belton,,,,
366,K5CRA,145.23,-,0.6,Tone,88.5,88.5,23,NN,Auto,5,,"Copperas Cove, Water Tank",,,,
367,KF5KOI,145.25,-,0.6,Tone,77,77,23,NN,FM,5,,Blanco,,,,
368,KF5KOI,145.28,-,0.6,Tone,77,88.5,23,NN,Auto,5,,Blanco,,,,
369,KB5YKJ,145.29,-,0.6,Tone,114.8,114.8,23,NN,FM,5,,Burnet,,,,
370,KG5PIV,145.35,-,0.6,Tone,123,88.5,23,NN,Auto,5,,"Belton, Belton High School",,,,
371,W5FBG,145.47,-,0.6,Tone,162.2,162.2,23,NN,Auto,5,,"Fredericksburg, N.E Gillespie County",,,,
372,N5ZXJ,145.49,-,0.6,Tone,123,123,23,NN,FM,5,,Lampasas,,,,
373,W5FBG,146.76,-,0.6,Tone,162.2,162.2,23,NN,Auto,5,,"Fredericksburg, Hill Country Memorial Hospital",,,,
374,W3XO,146.79,-,0.6,Tone,162.2,162.2,23,NN,FM,5,,Kerrville,,,,
375,W5LM,146.82,-,0.6,Tone,123,88.5,23,NN,Auto,5,,Temple,,,,
376,KG5DUO,147,+,0.6,Tone,123,88.5,23,NN,FM,5,,"Davilla, Davilla VFD",,,,
377,K5HLA,147.02,+,0.6,Tone,88.5,88.5,23,NN,FM,5,,Burnet,,,,
378,KK5AN,147.04,+,0.6,Tone,173.8,173.8,23,NN,FM,5,,Killeen,,,,
379,K5AB,147.06,+,0.6,Tone,100,100,23,NN,FM,5,,Lampasas,,,,
380,K5AB,147.1,+,0.6,Tone,100,88.5,23,NN,FM,5,,Goldthwaite,,,,
381,W5RP,147.16,+,0.6,Tone,162.2,162.2,23,NN,FM,5,,Doss,,,,
382,KB5SXV,147.22,+,0.6,Tone,88.5,88.5,23,NN,Auto,5,,Lampasas,,,,
383,W5NCD,147.24,+,0.6,Tone,97.4,88.5,23,NN,FM,5,,Bruceville,,,,
384,W5HAT,147.24,+,0.6,,88.5,88.5,23,NN,DV,5,,Bruceville,CQCQCQ,,,0
385,K5CTX,147.34,+,0.6,,88.5,88.5,23,NN,DV,5,,Temple,CQCQCQ,,,0
386,K5AB,147.38,+,0.6,Tone,100,100,23,NN,FM,5,,Florence,,,,
387,K6STU,224.3,-,1.6,,88.5,88.5,23,NN,FM,5,,Lampasas,,,,
388,WD5EMS,440.5,+,5,,88.5,88.5,23,NN,Auto,5,,"Belton, Lake Stillhouse",,,,
389,K5CTX,440.525,+,5,,88.5,88.5,23,NN,DV,5,,Temple,CQCQCQ,,,0
390,KE5RCS,440.575,+,5,,88.5,88.5,23,NN,DV,5,,Walburg,CQCQCQ,,,0
391,W5NGU,440.625,+,5,,88.5,88.5,23,NN,DV,5,,Bruceville,CQCQCQ,,,0
392,K5KSH,441.3125,+,5,Tone,162.2,162.2,23,NN,FM,5,,"Kerrville, State Hospital",,,,
393,NU5D,441.3375,+,5,,88.5,88.5,23,NN,DIG,5,,"Gatesville, North Fort Hood Army Base",,,,
394,NU5D,441.725,+,5,,88.5,88.5,23,NN,DIG,5,,"Gatesville, North Fort Hood Army Base",,,,
395,W5RP,442.3,+,5,Tone,162.2,162.2,23,NN,FM,5,,Doss,,,,
396,AA5RT,442.3,+,5,Tone,123,88.5,23,NN,FM,5,,Moody,,,,
397,K5AB,442.6,+,5,Tone,100,100,23,NN,FM,5,,Goldthwaite,,,,
398,WD5EMS,442.7,+,5,,88.5,88.5,23,NN,Auto,5,,Troy,,,,
399,K5AB,442.9,+,5,Tone,100,100,23,NN,FM,5,,Florence,,,,
400,K5AB,443.3,+,5,Tone,88.5,88.5,23,NN,FM,5,,Walburg,,,,
401,K5CRA,443.325,+,5,Tone,88.5,88.5,23,NN,FM,5,,Copperas Cove,,,,
402,WB5TTY,444.025,+,5,,88.5,88.5,23,NN,DIG,5,,"Temple, Dice Grove Church",,,,
403,W5FJD,444.175,+,5,Tone,162.2,162.2,23,NN,FM,5,,Fredericksburg,,,,
404,WA5PJE,444.275,+,5,,88.5,88.5,23,NN,FM,5,,Buchanan Dam,,,,
405,KD5CO,444.375,+,5,Tone,88.5,88.5,23,NN,FM,5,,Kempner,,,,
406,W5NCD,444.475,+,5,,88.5,88.5,23,NN,FM,5,,Bruceville,,,,
407,KE5RCS,444.575,+,5,,88.5,88.5,23,NN,DV,5,,Walburg,CQCQCQ,,,0
408,NU5D,444.725,+,5,,88.5,88.5,23,NN,DIG,5,,Bruceville,,,,
409,WD5EMS,927.025,-,25,DTCS,88.5,88.5,532,NN,FM,5,,Belton,,,,
410,WD5EMS,927.0375,-,25,Tone,141.3,141.3,23,NN,FM,5,,Troy,,,,
411,WD5EMS,927.075,-,25,Tone,218.1,218.1,23,NN,FM,5,,Lampasas,,,,
412,WD4IFU,927.15,-,25,Tone,114.8,114.8,23,NN,FM,5,,Belton,,,,
413,K5CTX,1292.1,-,20,,88.5,88.5,23,NN,DV,5,,Temple,CQCQCQ,,,0
414,KE5RCS,1293.2,-,20,,88.5,88.5,23,NN,FM,5,,Walburg,,,,
415,SEA 01,160.65,-,4.6,,88.5,88.5,23,NN,FM,25,,,,,,
416,SEA 02,160.7,-,4.6,,88.5,88.5,23,NN,FM,25,,,,,,
417,SEA 03,160.75,-,4.6,,88.5,88.5,23,NN,FM,25,,,,,,
418,SEA 04,160.8,-,4.6,,88.5,88.5,23,NN,FM,25,,,,,,
419,SEA 05,160.85,-,4.6,,88.5,88.5,23,NN,FM,25,,,,,,
420,SEA 06,156.3,,0,,88.5,88.5,23,NN,FM,25,,,,,,
421,SEA 07,160.95,-,4.6,,88.5,88.5,23,NN,FM,25,,,,,,
422,SEA 08,156.4,,0,,88.5,88.5,23,NN,FM,25,,,,,,
423,SEA 09,156.45,,0,,88.5,88.5,23,NN,FM,25,,,,,,
424,SEA 10,156.5,,0,,88.5,88.5,23,NN,FM,25,,,,,,
425,SEA 11,156.55,,0,,88.5,88.5,23,NN,FM,25,,,,,,
426,SEA 12,156.6,,0,,88.5,88.5,23,NN,FM,25,,,,,,
427,SEA 13,156.65,,0,,88.5,88.5,23,NN,FM,25,,,,,,
428,SEA 14,156.7,,0,,88.5,88.5,23,NN,FM,25,,,,,,
429,SEA 15,156.75,,0,,88.5,88.5,23,NN,FM,25,,,,,,
430,SEA 16,156.8,,0,,88.5,88.5,23,NN,FM,25,,,,,,
431,SEA 17,156.85,,0,,88.5,88.5,23,NN,FM,25,,,,,,
432,SEA 18,161.5,-,4.6,,88.5,88.5,23,NN,FM,25,,,,,,
433,SEA 19,161.55,-,4.6,,88.5,88.5,23,NN,FM,25,,,,,,
434,SEA 20,161.6,-,4.6,,88.5,88.5,23,NN,FM,25,,,,,,
435,SEA 21,161.65,-,4.6,,88.5,88.5,23,NN,FM,25,,,,,,
436,SEA 22,161.7,-,4.6,,88.5,88.5,23,NN,FM,25,,,,,,
437,SEA 23,161.75,-,4.6,,88.5,88.5,23,NN,FM,25,,,,,,
438,SEA 24,161.8,-,4.6,,88.5,88.5,23,NN,FM,25,,,,,,
439,SEA 25,161.85,-,4.6,,88.5,88.5,23,NN,FM,25,,,,,,
440,SEA 26,161.9,-,4.6,,88.5,88.5,23,NN,FM,25,,,,,,
441,SEA 27,161.95,-,4.6,,88.5,88.5,23,NN,FM,25,,,,,,
442,SEA 28,162,-,4.6,,88.5,88.5,23,NN,FM,25,,,,,,
443,SEA 60,160.625,-,4.6,,88.5,88.5,23,NN,FM,25,,,,,,
444,SEA 61,160.675,-,4.6,,88.5,88.5,23,NN,FM,25,,,,,,
445,SEA 62,160.725,-,4.6,,88.5,88.5,23,NN,FM,25,,,,,,
446,SEA 63,160.775,-,4.6,,88.5,88.5,23,NN,FM,25,,,,,,
447,SEA 64,160.825,-,4.6,,88.5,88.5,23,NN,FM,25,,,,,,
448,SEA 65,160.875,-,4.6,,88.5,88.5,23,NN,FM,25,,,,,,
449,SEA 66,160.925,-,4.6,,88.5,88.5,23,NN,FM,25,,,,,,
450,SEA 67,156.375,,0,,88.5,88.5,23,NN,FM,25,,,,,,
451,SEA 68,156.425,,0,,88.5,88.5,23,NN,FM,25,,,,,,
452,SEA 69,156.475,,0,,88.5,88.5,23,NN,FM,25,,,,,,
453,DSC 70,156.525,,0,,88.5,88.5,23,NN,FM,25,,,,,,
454,SEA 71,156.575,,0,,88.5,88.5,23,NN,FM,25,,,,,,
455,SEA 72,156.625,,0,,88.5,88.5,23,NN,FM,25,,,,,,
456,SEA 73,156.675,,0,,88.5,88.5,23,NN,FM,25,,,,,,
457,SEA 74,156.725,,0,,88.5,88.5,23,NN,FM,25,,,,,,
458,SEA 77,156.875,,0,,88.5,88.5,23,NN,FM,25,,,,,,
459,SEA 78,161.525,-,4.6,,88.5,88.5,23,NN,FM,25,,,,,,
460,SEA 79,161.575,-,4.6,,88.5,88.5,23,NN,FM,25,,,,,,
461,SEA 80,161.625,-,4.6,,88.5,88.5,23,NN,FM,25,,,,,,
462,SEA 81,161.675,-,4.6,,88.5,88.5,23,NN,FM,25,,,,,,
463,SEA 82,161.725,-,4.6,,88.5,88.5,23,NN,FM,25,,,,,,
464,SEA 83,161.775,-,4.6,,88.5,88.5,23,NN,FM,25,,,,,,
465,SEA 84,161.825,-,4.6,,88.5,88.5,23,NN,FM,25,,,,,,
466,SEA 85,161.875,-,4.6,,88.5,88.5,23,NN,FM,25,,,,,,
467,SEA 86,161.925,-,4.6,,88.5,88.5,23,NN,FM,25,,,,,,
468,AIS 87,161.975,-,4.6,,88.5,88.5,23,NN,FM,25,,,,,,
469,AIS 88,162.025,-,4.6,,88.5,88.5,23,NN,FM,25,,,,,,
470,SEA F1,155.625,,0,,88.5,88.5,23,NN,FM,25,,,,,,
471,SEA F2,155.775,,0,,88.5,88.5,23,NN,FM,25,,,,,,
472,SEA F3,155.825,,0,,88.5,88.5,23,NN,FM,25,,,,,,
473,SEA L1,155.5,,0,,88.5,88.5,23,NN,FM,25,,,,,,
474,SEA L2,155.525,,0,,88.5,88.5,23,NN,FM,25,,,,,,
